Quartus Projects/ERGASIA/ASKHSH 2/simulation/qsim/Exercise1.msim.vcd
$comment
	File created using the following command:
		vcd file Exercise1.msim.vcd -direction
$end
$date
	Thu Apr 05 11:05:43 2018
$end
$version
	ModelSim Version 10.1d
$end
$timescale
	1ps
$end
$scope module Exercise1_vlg_vec_tst $end
$var reg 1 ! x1 $end
$var reg 1 " x2 $end
$var reg 1 # x3 $end
$var reg 1 $ x4 $end
$var wire 1 % f $end
$var wire 1 & sampler $end
$scope module i1 $end
$var wire 1 ' gnd $end
$var wire 1 ( vcc $end
$var wire 1 ) unknown $end
$var tri1 1 * devclrn $end
$var tri1 1 + devpor $end
$var tri1 1 , devoe $end
$var wire 1 - x1~combout $end
$var wire 1 . x2~combout $end
$var wire 1 / x3~combout $end
$var wire 1 0 x4~combout $end
$var wire 1 1 inst9~0_combout $end
$upscope $end
$upscope $end
$enddefinitions $end
#0
$dumpvars
0!
0"
0#
0$
0%
x&
0'
1(
x)
1*
1+
1,
0-
0.
0/
00
01
$end
#5000
1$
10
0&
11
1%
#10000
1#
0$
1/
00
1&
#15000
1$
10
0&
01
0%
#20000
1"
0#
0$
1.
0/
00
1&
11
1%
#25000
1$
10
0&
#30000
1#
0$
1/
00
1&
#35000
1$
10
0&
#40000
1!
0"
0#
0$
1-
0.
0/
00
1&
#45000
1$
10
0&
#50000
1#
0$
1/
00
1&
#55000
1$
10
0&
#60000
1"
0#
0$
1.
0/
00
1&
01
0%
#65000
1$
10
0&
11
1%
#70000
1#
0$
1/
00
1&
#75000
1$
10
0&
01
0%
