Quartus Projects/ERGASIA/3170051_3170195_3170182_3170173/ASKHSH1/simulation/qsim/Problem1.msim.vcd
$comment
	File created using the following command:
		vcd file Problem1.msim.vcd -direction
$end
$date
	Sun Apr 15 13:54:31 2018
$end
$version
	ModelSim Version 10.1d
$end
$timescale
	1ps
$end
$scope module Problem1_vlg_vec_tst $end
$var reg 1 ! x1 $end
$var reg 1 " x2 $end
$var reg 1 # x3 $end
$var reg 1 $ x4 $end
$var reg 1 % x5 $end
$var wire 1 & f $end
$var wire 1 ' g $end
$var wire 1 ( sampler $end
$scope module i1 $end
$var wire 1 ) gnd $end
$var wire 1 * vcc $end
$var wire 1 + unknown $end
$var tri1 1 , devclrn $end
$var tri1 1 - devpor $end
$var tri1 1 . devoe $end
$var wire 1 / x2~combout $end
$var wire 1 0 x4~combout $end
$var wire 1 1 x3~combout $end
$var wire 1 2 I14|out1~0_combout $end
$var wire 1 3 x1~combout $end
$var wire 1 4 I14|out1~1_combout $end
$var wire 1 5 x5~combout $end
$var wire 1 6 I15|out1~0_combout $end
$var wire 1 7 I15|out1~1_combout $end
$upscope $end
$upscope $end
$enddefinitions $end
#0
$dumpvars
0!
0"
0#
0$
0%
0&
1'
x(
0)
1*
x+
1,
1-
1.
0/
00
01
02
03
04
05
16
17
$end
#10000
1%
15
0(
06
12
07
14
0'
1&
#20000
1$
0%
10
05
1(
02
17
04
1'
0&
#30000
1%
15
0(
07
16
17
0'
1'
#40000
1#
0$
0%
11
00
05
1(
12
14
1&
#50000
1%
15
0(
07
06
0'
#60000
1$
0%
10
05
1(
02
04
0&
#70000
1%
15
0(
16
#80000
1"
0#
0$
0%
1/
01
00
05
1(
17
1'
#90000
1%
15
0(
06
07
0'
#100000
1$
0%
10
05
1(
16
17
1'
#110000
1%
15
0(
12
14
1&
#120000
1#
0$
0%
11
00
05
1(
#130000
1%
15
0(
06
02
07
04
0'
0&
#140000
1$
0%
10
05
1(
16
17
1'
#150000
1%
15
0(
12
14
1&
#160000
1!
0"
0#
0$
0%
13
0/
01
00
05
1(
06
04
02
0&
#170000
1%
15
0(
07
12
0'
#180000
1$
0%
10
05
1(
02
17
1'
#190000
1%
15
0(
07
16
17
0'
1'
#200000
1#
0$
0%
11
00
05
1(
12
06
07
0'
#210000
1%
15
0(
#220000
1$
0%
10
05
1(
02
#230000
1%
15
0(
16
#240000
1"
0#
0$
0%
1/
01
00
05
1(
17
1'
#250000
1%
15
0(
06
07
0'
#260000
1$
0%
10
05
1(
17
1'
#270000
1%
15
0(
07
16
12
17
14
0'
1'
1&
#280000
1#
0$
0%
11
00
05
1(
#290000
1%
15
0(
06
02
07
04
0'
0&
#300000
1$
0%
10
05
1(
#310000
1%
15
0(
16
12
17
14
1'
1&
